…
stop_vec <- c(stopwords(language = "en"), stopwords(language = "es")) 
word_frequencies <- vec_words %>% 
  as_tibble() %>% 
  filter(!(value %in% stop_vec)) %>%  
  group_by(value) %>% 
  summarise(freq = n()) %>% 
  arrange(desc(freq)) 

top_25_words <- word_frequencies %>% slice_head(n = 25) 
top_25_words
```

    ## # A tibble: 25 × 2
    ##    value     freq
    ##    <chr>    <int>
    ##  1 I       590693
    ##  2 br      136733
    ##  3 product 100611
    ##  4 The      94876
    ##  5 It       81424
    ##  6 use      80636
    ##  7 like     76352
    ##  8 great    71485
    ##  9 This     69662
    ## 10 one      64936
    ## # ℹ 15 more rows
